{
  "type": "tempPerson",
  "namePrefix_id": "",
  "nameFirst": "",
  "nameMiddle": "",
  "nameLast": "",
  "nameSuffix_id": "",
  "nameMaiden": "",
  "ssn": "",
  "user_id": "", //look at
  "filename": "", //look at
  "gender_id": "",
  "dateOfBirth": "",
  "dateOfDeath": "",
  "homeless": false,
  "address": [
    {
      "residence": true,
      "mailingAddress": true,
      "addressTitle": "",
      "street": "",
      "unitNumber": "",
      "city": "",
      "state_id": "",
      "zip": "",
      "zipPlus4": "",
      "country_id": ""
    }
  ],
  "email": [
    {
      "emailTitle": "",
      "emailAddress": ""
    }
  ],
  "phone": [
    {
      "phoneType_id": "",
      "phoneNumber": ""
    }
  ],
  "language_id": "",
  "educationLevel_id": "",
  "race_id": "",
  "citizenshipStatus_id": "",
  "relationshipStatus_id": "",
  "immigrationStatus_id": "",
  "veteran": false,
  "dateOfEntry": "",
  "greenCardIssueDate": "",
  "countryOfOrigin_id": "",
  "employerJobTitle": "",
  "employerCompanyName": "",
  "guarantor": {
    "person_id": "",
    "relation_id": ""
  },
  "channels": [
    "ssd"
  ]
}