{
  "displayConditions": true,
  "date_created": "",
  "date_updated": "",
  "user_id": "", //look at
  "filename": "", //look at
  "person_id": "",
  "type": "tempScreening",
  "results": [
  ],
  "accountNumber": "",
  "admission_date":"",
  "medicalRecordNumber": "",
  "aoPlacementNumber":"",
  "hospital_id": "",
  "state_id": "",
  "channels": [
    "ssd"
  ]
}